c_system;id;p_id;c_level;c_order;datstring;name_short;name_long;start;end;description
thieme1976;1;0;1;1;thieme1976_EZ;EZ;Eisenzeit;-600;375;Thieme 1976 (Magisterarbeit)
thieme1976;2;1;2;1;thieme1976_EZ>Stufe-I;Stufe-I;Stufe-I;-600;-450;Thieme 1976 (Magisterarbeit): Stufe I ist der Wessenstedt- und der älteren Jastorf-Stufe,bzw. Hingsts Stufen Ia bis ausgehendes Ic (Keramische Typengruppen 1-3) parallel zu setzen. Bestimmend für die Stufe I sind tonnenförmige bis annähernd doppelkonische Gefäße und Kegelhalsgefäße. fortNE_Vorg>EZ>PRIA>PRIA-I>Periode VI_0.6, fortNE_Vorg>EZ>PRIA>PRIA-I>PRIA_IA_0.6, -750 bis -450
thieme1976;3;1;2;2;thieme1976_EZ>Stufe-II;Stufe-II;Stufe-II;-450;-80;Thieme 1976 (Magisterarbeit): Stufe II besteht zeitlich neben den Stufen Jastorf-c, Ripdorf und großen Teilen von Seedorf, bzw. Hingst Id bis IIb (Keramische Typengruppen 4-7, z.T. noch 8). Vom Gefäßtyp sind Neigung und Ausformung des Randes abhängig, so dass in Stufe II schlanke weite Trichterränder gleichzeitig mit kurzen Steilrändern sein können oder flachschultrige Gefäße gleichzeitig mit steilschultrigen Gefäßen. fortNE_Vorg>EZ>PRIA>PRIA-I>PRIA-IB_0.6, fortNE_Vorg>EZ>PRIA>PRIA-II>PRIA_IIA_0.6, fortNE_Vorg>EZ>PRIA>PRIA-II>PRIA_IIB_0.6, -450 bis -80
thieme1976;4;1;2;3;thieme1976_EZ>Stufe-III;Stufe-III;Stufe-III;-80;50;"Thieme 1976 (Magisterarbeit): Ein spätes Seedorf, ungefähr Hingst II c-d (Keramische Typengruppen 8, 9, 10) ergibt den ersten Teil von Stufe III, deren Fortsetzung in der älteren römischen Eisenzeit B l liegt. Die Stufe III beginnt noch in der ausgehenden vorrömischen und setzt sich in der frühen römischen Eisenzeit fort. Sie stellt einen Übergang dar, besitzt aber in ihrem Formenschatz deutliche eigene Züge. Diese werden im Wesentlichen durch verdickte, abgestrichene und verdickte, facettierte Ränder charakterisiert. Dazu gehören kugelige und situlenartige Gefäße. Verdickte Ränder kommen schon in der vorigen Stufe vor. In Stufe III werden sie sowohl an Siedlungskeramik wie auch an Grabgefäßen kurz gedrungen und erhalten außen ein bis zwei Abstriche oder Facetten, einen waagerechten Deckabstrich und an der Innenseite einen Abstrich oder zwei saubere Facetten. fortNE_Vorg>EZ>PRIA>PRIA-II>PRIA-IIC_0.6 fortNE_Vorg>EZ>PRIA>PRIA-II>PRIA-IID_0.6, fortNE_Vorg>EZ>RKZ_0.5; -80 bis xxx"
thieme1976;5;1;2;4;thieme1976_EZ>Stufe-IV;Stufe-IV;Stufe-IV;50;150;"Thieme 1976 (Magisterarbeit): Der verbleibende große Rest von der älteren römischen Eisenzeit wird von Stufe IV eingenommen. Wie der Wandel in der Randgestaltung bestimmter Gefäßformen und Verzierungen andeutet, wird der Einschnitt zwischen den beiden Unterteilungen der Stufe IV in Stufe B2 liegen. Schwierig erscheint zunächst die Abgrenzung gegenüber der nachfolgenden Stufe IV (Taf. 8 G- 11 B); denn diese führt den keramischen Bestand der Stufe III weitgehend fort. fortNE_Vorg>EZ>RKZ_1.0"
thieme1976;6;1;2;5;thieme1976_EZ>Stufe-V;Stufe-V;Stufe-V;150;375;"Thieme 1976 (Magisterarbeit): Der Anfang von Stufe V ist gleichzeitig mit dem Beginn der jüngeren römischen Eisenzeit anzunehmen. Dies ergibt sich aus dem Ende der Stufe IV. fortNE_Vorg>EZ>RKZ_1.0
Der späte Abschnitt der jüngeren römischen Eisenzeit, ungefähr C3, und die Völkerwanderungszeit laufen mit Stufe VI parallel. Der Abschluss dieser Stufe bleibt noch unklar, vermutlich fällt er mit dem Ende der Völkerwanderungszeit zusammen, mit dem allgemein das Fundgut in Südholstein aussetzt. Der Typenbestand der nachfolgenden beiden Stufen V und VI hat sich auf wenige Grundformen vermindert. In der Stufe V (Taf. 11 C - 13 E) kommen nur wenige Terrinen vor; sie lassen sich durch abgesetzte, kurze dünne Ränder bzw. durch hohe, nur wenig auswärts geneigte Ränder auf einer steilen Schulter an solche der Stufe IV anschließen. fortNE_Vorg>EZ>RKZ_1.0"
