SITE_AKG_ID;DATABASE_NAME;SITE_SOURCE_ID;SITE_NAME;MAIN_CITY_NAME;GEONAME_ID;PROJECTION_SYSTEM;LONGITUDE;LATITUDE;ALTITUDE;CITY_CENTROID;STATE_OF_KNOWLEDGE;OCCUPATION;STARTING_PERIOD;ENDING_PERIOD;CARAC_NAME;CARAC_LVL1;CARAC_LVL2;CARAC_LVL3;CARAC_LVL4;CARAC_EXP;BIBLIOGRAPHY;COMMENTS
1408344;Agglomérations du Ier s AEC au VIIe s EC dans le monde romain ;Hanson2016_748;Ardea, Italia (I Latium and Campania);Ardea, Italy;;4326;12.510598;41.611504;;Non;Fouillé;Non renseigné;-500;1;Immobilier;Habitat;Groupé;;;Non;Beloch 1880, Beloch 1886, Bispham 2007, Cornell and Mathews 1982, de Ligt 2012, PECS, Salmon 1969, Salmon 1969.;Barrington Atlas Rank, Reference: 3, 43 C3
1408360;Agglomérations du Ier s AEC au VIIe s EC dans le monde romain ;Hanson2016_764;Circeii (1), Italia (I Latium and Campania);Circeo, Italy;;4326;13.096265;41.235626;;Non;Fouillé;Non renseigné;-600;-27;Immobilier;Habitat;Groupé;;;Non;Beloch 1880, Bispham 2007, BNP, Cornell and Mathews 1982, de Ligt 2012, DGRG, Salmon 1969.;Barrington Atlas Rank, Reference: 3, 44 D3
1408382;Agglomérations du Ier s AEC au VIIe s EC dans le monde romain ;Hanson2016_786;Norba, Italia (I Latium and Campania);Norma, Italy;;4326;12.960278;41.591667;;Non;Fouillé;Non renseigné;-600;-82;Immobilier;Habitat;Groupé;;;Non;Beloch 1880, Beloch 1886, Cornell and Mathews 1982, de Ligt 2012, PECS, Salmon 1969, Woloch 1983.;Barrington Atlas Rank, Reference: 3, 43 D3
1408562;Agglomérations du Ier s AEC au VIIe s EC dans le monde romain ;Hanson2016_966;Capena, Italia (VII Etruria);Civitcola, Italy;;4326;12.541739;42.142673;;Non;Fouillé;Non renseigné;-500;275;Immobilier;Habitat;Groupé;;;Non;Beloch 1880, Bispham 2007, de Ligt 2012, DGRG, PECS.;Barrington Atlas Rank, Reference: 3, 42 D4
1408567;Agglomérations du Ier s AEC au VIIe s EC dans le monde romain ;Hanson2016_971;Cosa, Italia (VII Etruria);Ansedonia, Italy;;4326;11.289618;42.413185;;Non;Fouillé;Non renseigné;-400;275;Immobilier;Habitat;Groupé;;;Non;Beloch 1880, Beloch 1886, Bispham 2007, Cornell and Mathews 1982, de Ligt 2012, PECS, Quinn and Wilson 2013, Salmon 1969, Woloch 1983.;Barrington Atlas Rank, Reference: 3, 42 A4
1408571;Agglomérations du Ier s AEC au VIIe s EC dans le monde romain ;Hanson2016_975;Fidenae, Italia (VII Etruria);Fidene, Italy;;4326;12.515431;41.982056;;Non;Fouillé;Non renseigné;-600;-50;Immobilier;Habitat;Groupé;;;Non;Beloch 1880, Bispham 2007, Cornell and Mathews 1982, de Ligt 2012, DGRG, Salmon 1969.;Barrington Atlas Rank, Reference: 4 or 5, 43 C2
