c_system;id;p_id;c_level;c_order;datstring;name_short;name_long;start;end;description
fortME;1;0;1;1;fortME_Vorg;Vorg;Vorgeschichte;-6000;-25;
fortME;2;1;2;1;fortME_Vorg>SZ;SZ;Steinzeit;-6000;-2200;
fortME;3;1;2;2;fortME_Vorg>BZ;Bz;Bronzezeit;-2200;-800;
fortME;4;3;3;1;fortME_Vorg>BZ>FBZ;FBZ;Frühbronzezeit;-2200;-1600;
fortME;5;4;4;1;fortME_Vorg>BZ>FBZ>BzA1;BzA1;BzA1;-2200;-2000;
fortME;6;4;4;2;fortME_Vorg>BZ>FBZ>BzA2;BzA2;BzA2;-2000;-1600;
fortME;7;3;3;2;fortME_Vorg>BZ>MBZ;MBZ;Mittelbronzezeit;-1600;-1300;
fortME;8;7;4;1;fortME_Vorg>BZ>MBZ>BzB;BvB;BvB;-1600;-1500;
fortME;9;7;4;2;fortME_Vorg>BZ>MBZ>BzC;BzC;BzC;-1500;-1300;
fortME;10;9;5;1;fortME_Vorg>BZ>MBZ>BzC>BzC1;BzC1;BzC1;-1500;-1400;
fortME;11;9;5;2;fortME_Vorg>BZ>MBZ>BzC>BzC2;BzC2;BzC2;-1400;-1300;
fortME;12;3;3;3;fortME_Vorg>BZ>SBZ;SBZ;Spätbronzezeit / Urnenfelderzeit;-1200;-800;
fortME;13;12;4;1;fortME_Vorg>BZ>SBZ>BzD;BzD;Bronzezeit D;-1300;-1200;
fortME;14;12;4;2;fortME_Vorg>BZ>SBZ>HaA;HaA;HaA;-1200;-1050;
fortME;15;14;5;1;fortME_Vorg>BZ>SBZ>HaA>HaA1;HaA1;HaA1;-1200;-1100;
fortME;16;14;5;2;fortME_Vorg>BZ>SBZ>HaA>HaA2;HaA2;HaA2;-1100;-1050; 
fortME;17;12;4;3;fortME_Vorg>BZ>SBZ>HaB;HaB;HaB;-1050;-800;
fortME;18;17;5;1;fortME_Vorg>BZ>SBZ>HaB>HaB1;HaB1;HaB1;-1050;-950;
fortME;19;17;5;2;fortME_Vorg>BZ>SBZ>HaB>HaB2/3;HaB2/3;HaB2/3;-950;-800;
fortME;20;1;2;3;fortME_Vorg>EZ;EZ;Eisenzeit;-800;-15;
fortME;21;20;3;1;fortME_Vorg>EZ>Ha;Ha;Hallstattzeit;-800;-450;
fortME;22;21;4;1;fortME_Vorg>EZ>Ha>HaC;HaC;Mittelhallstattzeit;-800;-620;
fortME;23;22;5;1;fortME_Vorg>EZ>Ha>HaC>HaC1;HaC1;HaC1;-800;-650;
fortME;24;23;6;1;fortME_Vorg>EZ>Ha>HaC>HaC1>HaC1a;HaC1a;HaC1a;-800;-725; = C0 nach Pare 1991,  Hennig 1995
fortME;25;23;6;2;fortME_Vorg>EZ>Ha>HaC>HaC1>HaC1b;HaC1b;HaC1b;-725;-650;
fortME;26;22;5;2;fortME_Vorg>EZ>Ha>HaC>HaC2;HaC2;HaC2;-650;-620;
fortME;27;21;4;2;fortME_Vorg>EZ>Ha>HaD;HaD;Späthallstattzeit;-620;-450;C-D Übergang 685 and 655 cal BC nach Rose, H.A., Müller-Scheeßel, N., Meadows, J. et al. Radiocarbon dating and Hallstatt chronology: a Bayesian chronological model for the burial sequence at Dietfurt an der Altmühl ‘Tennisplatz’, Bavaria, Germany. Archaeol Anthropol Sci 14, 72 (2022).
fortME;28;27;5;1;fortME_Vorg>EZ>Ha>HaD>HaD1;HaD1;HaD1;-620;-530;  Bevölkerungsmaximum Heuneburg
fortME;29;27;5;2;fortME_Vorg>EZ>Ha>HaD>HaD2;HaD2;HaD2;-530;-510;  Kollaps Heuneburg
fortME;30;27;5;3;fortME_Vorg>EZ>Ha>HaD>HaD3;HaD3;HaD3;-510;-450;  Niedergang der Heuneburg, Blüte des Mt. Lassois, des Hohenasperg und des Ipf
fortME;31;20;3;2;fortME_Vorg>EZ>Lt;Lt;Latènezeit;-450;-15;
fortME;32;31;4;1;fortME_Vorg>EZ>Lt>Flt;Flt;Frühlatènezeit;-450;-250; 
fortME;33;32;5;1;fortME_Vorg>EZ>Lt>Flt>LtA;LtA;LtA;-450;-380; v. Chr. Blüte des Glauberg
fortME;34;32;5;2;fortME_Vorg>EZ>Lt>Flt>LtB;LtB;LtB;-380;-250; 
fortME;35;34;6;1;fortME_Vorg>EZ>Lt>Flt>LtB>LtB1;LtB1;LtB1;-380;-320;
fortME;36;34;6;2;fortME_Vorg>EZ>Lt>Flt>LtB>LtB2;LtB2;LtB2;-320;-250;
fortME;37;32;4;2;fortME_Vorg>EZ>Lt>LtC;LtC;Mittellatènezeit;-250;-150;
fortME;38;37;5;1;fortME_Vorg>EZ>Lt>LtC>LtC1;LtC1;LtC1;-250;-200;
fortME;39;37;5;2;fortME_Vorg>EZ>Lt>LtC>LtC2;LtC2;LtC2;-200;-150;
fortME;40;31;4;3;fortME_Vorg>EZ>Lt>LtD;LtD;Spätlatènezeit;-150;-15;
fortME;41;40;5;1;fortME_Vorg>EZ>Lt>LtD>LtD1;LtD1;LtD1;-150;-80;
fortME;42;41;6;1;fortME_Vorg>EZ>Lt>LtD>LtD1>LtD1a;LtD1a;LtD1a;-150;-125;
fortME;43;41;6;2;fortME_Vorg>EZ>Lt>LtD>LtD1>LtD1b;LtD1b;LtD1b;-125;-86;
fortME;44;40;5;2;fortME_Vorg>EZ>Lt>LtD>LtD2;LtD2;LtD2;-85;-15;
fortME;45;44;6;1;fortME_Vorg>EZ>Lt>LtD>LtD2>LtD2a;LtD2a;LtD2a;-85;-45;
fortME;46;44;6;2;fortME_Vorg>EZ>Lt>LtD>LtD2>LtD2b;LtD2b;LtD2b;-45;-15;
fortME;47;0;1;1;fortME_Rom;Rom;Römisch;-15;300;
fortME;48;0;1;1;fortME_MA-NZ;MA-NZ;Mittelalter-Neuzeit;300;2000;
ArkeoGIS-ME;1;0;1;1;ArkeoGIS-ME_MetalAges;MetalAges;MetalAges;-2200;-25;
ArkeoGIS-ME;2;1;2;1;ArkeoGIS-ME_MetalAges>BronzeAge;BronzeAge;BronzeAge;-2200;-800;
ArkeoGIS-ME;3;2;3;1;ArkeoGIS-ME_MetalAges>BronzeAge>EarlyBronzeAge;EarlyBronzeAge;EarlyBronzeAge;-2200;-1600;
ArkeoGIS-ME;4;3;4;1;ArkeoGIS-ME_MetalAges>BronzeAge>EarlyBronzeAge>BRA1;BRA1;BRA1;-2200;-1800;
ArkeoGIS-ME;5;4;5;1;ArkeoGIS-ME_MetalAges>BronzeAge>EarlyBronzeAge>BRA1>BRA1a;BRA1a;BRA1a;-2200;-2000;
ArkeoGIS-ME;6;4;5;2;ArkeoGIS-ME_MetalAges>BronzeAge>EarlyBronzeAge>BRA1>BRA1b;BRA1b;BRA1b;-2000;-1800;
ArkeoGIS-ME;7;3;4;2;ArkeoGIS-ME_MetalAges>BronzeAge>EarlyBronzeAge>BRA2;BRA2;BRA2;-1800;1652;
ArkeoGIS-ME;8;7;5;1;ArkeoGIS-ME_MetalAges>BronzeAge>EarlyBronzeAge>BRA2>BRA2a;BRA2a;BRA2a;-1800;-1700;
ArkeoGIS-ME;9;7;5;2;ArkeoGIS-ME_MetalAges>BronzeAge>EarlyBronzeAge>BRA2>BRA2b;BRA2b;BRA2b;-1700;-1650;
ArkeoGIS-ME;10;3;4;3;ArkeoGIS-ME_MetalAges>BronzeAge>EarlyBronzeAge>BRA3;BRA3;BRA3;-1650;1602;
ArkeoGIS-ME;11;10;5;1;ArkeoGIS-ME_MetalAges>BronzeAge>EarlyBronzeAge>BRA3>BRA3a;BRA3a;BRA3a;-1650;-1625;
ArkeoGIS-ME;12;10;5;2;ArkeoGIS-ME_MetalAges>BronzeAge>EarlyBronzeAge>BRA3>BRA3b;BRA3b;BRA3b;-1625;-1600;
ArkeoGIS-ME;13;2;3;2;ArkeoGIS-ME_MetalAges>BronzeAge>MiddleBronzeAge;MiddleBronzeAge;MiddleBronzeAge;-1600;-1350;
ArkeoGIS-ME;14;13;4;1;ArkeoGIS-ME_MetalAges>BronzeAge>MiddleBronzeAge>BRM1;BRM1;BRM1;-1600;-1475;
ArkeoGIS-ME;15;14;5;1;ArkeoGIS-ME_MetalAges>BronzeAge>MiddleBronzeAge>BRM1>BRM1a;BRM1a;BRM1a;-1600;-1500;
ArkeoGIS-ME;16;14;5;2;ArkeoGIS-ME_MetalAges>BronzeAge>MiddleBronzeAge>BRM1>BRM1b;BRM1b;BRM1b;-1500;-1475;
ArkeoGIS-ME;17;13;4;2;ArkeoGIS-ME_MetalAges>BronzeAge>MiddleBronzeAge>BRM2;BRM2;BRM2;-1475;-1425;
ArkeoGIS-ME;18;17;5;1;ArkeoGIS-ME_MetalAges>BronzeAge>MiddleBronzeAge>BRM2>BRM2a;BRM2a;BRM2a;-1475;-1450;
ArkeoGIS-ME;19;17;5;2;ArkeoGIS-ME_MetalAges>BronzeAge>MiddleBronzeAge>BRM2>BRM2b;BRM2b;BRM2b;-1450;-1425;
ArkeoGIS-ME;20;13;4;3;ArkeoGIS-ME_MetalAges>BronzeAge>MiddleBronzeAge>BRM3;BRM3;BRM3;-1425;-1350;
ArkeoGIS-ME;21;20;5;1;ArkeoGIS-ME_MetalAges>BronzeAge>MiddleBronzeAge>BRM3>BRM3a;BRM3a;BRM3a;-1425;-1400;
ArkeoGIS-ME;22;20;5;2;ArkeoGIS-ME_MetalAges>BronzeAge>MiddleBronzeAge>BRM3>BRM3b;BRM3b;BRM3b;-1400;-1350;
ArkeoGIS-ME;23;2;3;2;ArkeoGIS-ME_MetalAges>BronzeAge>LateBronzeAge;LateBronzeAge;LateBronzeAge;-1350;-800;
ArkeoGIS-ME;24;23;4;1;ArkeoGIS-ME_MetalAges>BronzeAge>LateBronzeAge>BRF1;BRF1;BRF1;-1350;-1050;
ArkeoGIS-ME;25;24;5;1;ArkeoGIS-ME_MetalAges>BronzeAge>LateBronzeAge>BRF1>BRF1a;BRF1a;BRF1a;-1350;-1250;
ArkeoGIS-ME;26;24;5;2;ArkeoGIS-ME_MetalAges>BronzeAge>LateBronzeAge>BRF1>BRF1b;BRF1b;BRF1b;-1250;-1050;
ArkeoGIS-ME;27;23;4;2;ArkeoGIS-ME_MetalAges>BronzeAge>LateBronzeAge>BRF2;BRF2;BRF2;-1050;-900;
ArkeoGIS-ME;28;27;5;1;ArkeoGIS-ME_MetalAges>BronzeAge>LateBronzeAge>BRF2>BRF2a;BRF2a;BRF2a;-1050;-1000;
ArkeoGIS-ME;29;27;5;2;ArkeoGIS-ME_MetalAges>BronzeAge>LateBronzeAge>BRF2>BRF2b;BRF2b;BRF2b;-1000;-900;
ArkeoGIS-ME;30;23;4;3;ArkeoGIS-ME_MetalAges>BronzeAge>LateBronzeAge>BRF3;BRF3;BRF3;-900;-800;
ArkeoGIS-ME;31;30;5;1;ArkeoGIS-ME_MetalAges>BronzeAge>LateBronzeAge>BRF3>BRF3a;BRF3a;BRF3a;-900;-850;
ArkeoGIS-ME;32;30;5;2;ArkeoGIS-ME_MetalAges>BronzeAge>LateBronzeAge>BRF3>BRF3b;BRF3b;BRF3b;-850;-800;
ArkeoGIS-ME;33;1;2;2;ArkeoGIS-ME_MetalAges>IronAge;IronAge;IronAge;-800;-25;
ArkeoGIS-ME;34;33;3;1;ArkeoGIS-ME_MetalAges>IronAge>Hallstatt;Hallstatt;Hallstatt;-800;-460;
ArkeoGIS-ME;35;34;4;1;ArkeoGIS-ME_MetalAges>IronAge>Hallstatt>HaC;HaC;HaC;-800;-620;
ArkeoGIS-ME;36;35;5;1;ArkeoGIS-ME_MetalAges>IronAge>Hallstatt>HaC>HaC1;HaC1;HaC1;-800;-725;
ArkeoGIS-ME;37;36;6;1;ArkeoGIS-ME_MetalAges>IronAge>Hallstatt>HaC>HaC1>HaC1a;HaC1a;HaC1a;-800;-750;
ArkeoGIS-ME;38;36;6;2;ArkeoGIS-ME_MetalAges>IronAge>Hallstatt>HaC>HaC1>HaC1b;HaC1b;HaC1b;-750;-725;
ArkeoGIS-ME;39;35;5;2;ArkeoGIS-ME_MetalAges>IronAge>Hallstatt>HaC>HaC2;HaC2;HaC2;-726;-620;
ArkeoGIS-ME;40;39;6;1;ArkeoGIS-ME_MetalAges>IronAge>Hallstatt>HaC>HaC2>HaC2a;HaC2a;HaC2a;-725;-700;
ArkeoGIS-ME;41;39;6;2;ArkeoGIS-ME_MetalAges>IronAge>Hallstatt>HaC>HaC2>HaC2b;HaC2b;HaC2b;-700;-620;
ArkeoGIS-ME;42;34;4;2;ArkeoGIS-ME_MetalAges>IronAge>Hallstatt>HaD;HaD;HaD;-620;-460;
ArkeoGIS-ME;43;42;5;1;ArkeoGIS-ME_MetalAges>IronAge>Hallstatt>HaD>HaD1;HaD1;HaD1;-620;-530;
ArkeoGIS-ME;44;43;6;1;ArkeoGIS-ME_MetalAges>IronAge>Hallstatt>HaD>HaD1>HaD1a;HaD1a;HaD1a;-620;-575;
ArkeoGIS-ME;45;43;6;2;ArkeoGIS-ME_MetalAges>IronAge>Hallstatt>HaD>HaD1>HaD1b;HaD1b;HaD1b;-575;-530;
ArkeoGIS-ME;46;42;5;2;ArkeoGIS-ME_MetalAges>IronAge>Hallstatt>HaD>HaD2;HaD2;HaD2;-530;-500;
ArkeoGIS-ME;47;46;6;1;ArkeoGIS-ME_MetalAges>IronAge>Hallstatt>HaD>HaD2>HaD2a;HaD2a;HaD2a;-530;-525;
ArkeoGIS-ME;48;46;6;2;ArkeoGIS-ME_MetalAges>IronAge>Hallstatt>HaD>HaD2>HaD2b;HaD2b;HaD2b;-525;-500;
ArkeoGIS-ME;49;42;5;3;ArkeoGIS-ME_MetalAges>IronAge>Hallstatt>HaD>HaD3;HaD3;HaD3;-500;-460;
ArkeoGIS-ME;50;49;6;1;ArkeoGIS-ME_MetalAges>IronAge>Hallstatt>HaD>HaD3>HaD3a;HaD3a;HaD3a;-500;-475;
ArkeoGIS-ME;51;49;6;2;ArkeoGIS-ME_MetalAges>IronAge>Hallstatt>HaD>HaD3>HaD3b;HaD3b;HaD3b;-475;-460;
ArkeoGIS-ME;52;33;3;2;ArkeoGIS-ME_MetalAges>IronAge>LaTène;LaTène;LaTène;-460;-25;
ArkeoGIS-ME;53;52;4;1;ArkeoGIS-ME_MetalAges>IronAge>LaTène>LtA;LtA;LtA;-460;-400;
ArkeoGIS-ME;54;53;5;1;ArkeoGIS-ME_MetalAges>IronAge>LaTène>LtA>LtA1;LtA1;LtA1;-460;-430;
ArkeoGIS-ME;55;54;6;1;ArkeoGIS-ME_MetalAges>IronAge>LaTène>LtA>LtA1>LtA1a;LtA1a;LtA1a;-460;-445;
ArkeoGIS-ME;56;54;6;2;ArkeoGIS-ME_MetalAges>IronAge>LaTène>LtA>LtA1>LtA1b;LtA1b;LtA1b;-445;-430;
ArkeoGIS-ME;57;53;5;2;ArkeoGIS-ME_MetalAges>IronAge>LaTène>LtA>LtA2;LtA2;LtA2;-430;-400;
ArkeoGIS-ME;58;57;6;1;ArkeoGIS-ME_MetalAges>IronAge>LaTène>LtA>LtA2>LtA2a;LtA2a;LtA2a;-430;-415;
ArkeoGIS-ME;59;57;6;2;ArkeoGIS-ME_MetalAges>IronAge>LaTène>LtA>LtA2>LtA2b;LtA2b;LtA2b;-415;-400;
ArkeoGIS-ME;60;52;4;2;ArkeoGIS-ME_MetalAges>IronAge>LaTène>LtB;LtB;LtB;-400;-260;
ArkeoGIS-ME;61;60;5;1;ArkeoGIS-ME_MetalAges>IronAge>LaTène>LtB>LtB1;LtB1;LtB1;-400;-320;
ArkeoGIS-ME;62;61;6;1;ArkeoGIS-ME_MetalAges>IronAge>LaTène>LtB>LtB1>LtB1a;LtB1a;LtB1a;-400;-350;
ArkeoGIS-ME;63;61;6;2;ArkeoGIS-ME_MetalAges>IronAge>LaTène>LtB>LtB1>LtB1b;LtB1b;LtB1b;-350;-320;
ArkeoGIS-ME;64;60;5;2;ArkeoGIS-ME_MetalAges>IronAge>LaTène>LtB>LtB2;LtB2;LtB2;-320;-260;
ArkeoGIS-ME;65;64;6;1;ArkeoGIS-ME_MetalAges>IronAge>LaTène>LtB>LtB2>LtB2a;LtB2a;LtB2a;-320;-275;
ArkeoGIS-ME;66;64;6;2;ArkeoGIS-ME_MetalAges>IronAge>LaTène>LtB>LtB2>LtB2b;LtB2b;LtB2b;-275;-260;
ArkeoGIS-ME;67;52;4;3;ArkeoGIS-ME_MetalAges>IronAge>LaTène>LtC;LtC;LtC;-260;-150;
ArkeoGIS-ME;68;67;5;1;ArkeoGIS-ME_MetalAges>IronAge>LaTène>LtC>LtC1;LtC1;LtC1;-260;-200;
ArkeoGIS-ME;69;68;6;1;ArkeoGIS-ME_MetalAges>IronAge>LaTène>LtC>LtC1>LtC1a;LtC1a;LtC1a;-260;-225;
ArkeoGIS-ME;70;68;6;2;ArkeoGIS-ME_MetalAges>IronAge>LaTène>LtC>LtC1>LtC1b;LtC1b;LtC1b;-225;-200;
ArkeoGIS-ME;71;67;5;2;ArkeoGIS-ME_MetalAges>IronAge>LaTène>LtC>LtC2;LtC2;LtC2;-200;-150;
ArkeoGIS-ME;72;71;6;1;ArkeoGIS-ME_MetalAges>IronAge>LaTène>LtC>LtC2>LtC2a;LtC2a;LtC2a;-200;-175;
ArkeoGIS-ME;73;71;6;2;ArkeoGIS-ME_MetalAges>IronAge>LaTène>LtC>LtC2>LtC2b;LtC2b;LtC2b;-175;-150;
ArkeoGIS-ME;74;52;4;4;ArkeoGIS-ME_MetalAges>IronAge>LaTène>LtD;LtD;LtD;-150;-25;
ArkeoGIS-ME;75;74;5;1;ArkeoGIS-ME_MetalAges>IronAge>LaTène>LtD>LtD1;LtD1;LtD1;-150;-75;
ArkeoGIS-ME;76;75;6;1;ArkeoGIS-ME_MetalAges>IronAge>LaTène>LtD>LtD1>LtD1a;LtD1a;LtD1a;-150;-125;
ArkeoGIS-ME;77;75;6;2;ArkeoGIS-ME_MetalAges>IronAge>LaTène>LtD>LtD1>LtD1b;LtD1b;LtD1b;-125;-75;
ArkeoGIS-ME;78;74;5;2;ArkeoGIS-ME_MetalAges>IronAge>LaTène>LtD>LtD2;LtD2;LtD2;-75;-25;
ArkeoGIS-ME;79;78;6;1;ArkeoGIS-ME_MetalAges>IronAge>LaTène>LtD>LtD2>LtD2a;LtD2a;LtD2a;-75;-50;
ArkeoGIS-ME;80;78;6;2;ArkeoGIS-ME_MetalAges>IronAge>LaTène>LtD>LtD2>LtD2b;LtD2b;LtD2b;-50;-25;
ArkeoGIS-ME;81;1;2;3;ArkeoGIS-ME_MetalAges>Roman;Roman;Roman;-26;300;
fortNE;1;0;1;1;fortNE_Vorg;Vorg;Vorgeschichte;-1800;1050;
fortNE;2;1;2;1;fortNE_Vorg>BZ;BZ;Bronzezeit;-1800;-950;
fortNE;3;2;3;1;fortNE_Vorg>BZ>aeltereBZ;aeltereBZ;;-1800;-1100;
fortNE;4;3;4;1;fortNE_Vorg>BZ>aeltereBZ>PerI;PerI;Periode I;-1800;-1500;
fortNE;5;3;4;2;fortNE_Vorg>BZ>aeltereBZ>PerII;PerII;Periode II;-1500;-1300;
fortNE;6;3;4;3;fortNE_Vorg>BZ>aeltereBZ>PerIII;PerIII;Periode III;-1300;-1100;
fortNE;7;2;3;2;fortNE_Vorg>BZ>PerI>juengereBZ;juengereBZ;;-1100;-750;
fortNE;8;7;4;4;fortNE_Vorg>BZ>PerI>juengereBZ>PerIV;PerIV;Periode IV;-1100;-950;Ha B1-Ha B2 
fortNE;9;7;4;5;fortNE_Vorg>BZ>PerI>juengereBZ>PerV;PerV;Periode V;-950;-750;Ha B3 Kneisel B3-C1 850-725 
fortNE;10;1;2;2;fortNE_Vorg>EZ;EZ;Eisenzeit;-750;1050;
fortNE;11;10;3;1;fortNE_Vorg>EZ>PRIA;PRIA;Pre-Roman Iron Age ;-750;0;
fortNE;12;11;4;1;fortNE_Vorg>EZ>PRIA>PRIA-I;PRIA-I;PRIA_I;-750;-250;
fortNE;13;12;5;1;fortNE_Vorg>EZ>PRIA>PRIA-I>PerVI;PerVI;Periode VI;-750;-525; = ha c ha D1, Hingst Ia, Nortmann Horizont 1, wessenstedt kneisel
fortNE;14;12;5;2;fortNE_Vorg>EZ>PRIA>PRIA-I>PRIA-IA;PRIA-IA;PRIA_IA ;-525;-450;"Hingst Ib-Ic1; Ha D2-Ha D3; Nortmann Horizont 2; lt Eichfeld: Harck 1a = Heynowski Wendelring d = Ha D1 und Harck 1b = Ha D2 und Harck 1c = Ha D3 und Lt A"
fortNE;15;12;5;3;fortNE_Vorg>EZ>PRIA>PRIA-I>PRIA-IB;PRIA-IB;PRIA_IB;-450;-250;"Hingst Ic2-Id; Nortmann Horizont 3-4; lt Eichfeld: Harck 1d = Lt B"
fortNE;16;15;6;1;fortNE_Vorg>EZ>PRIA>PRIA-I>PRIA-IB>aelterPRIA-Ib;PRIA-Ibaelter;Ältere PRIA_IB;-450;-350;"Martens/Hingst; = Hingst Ic-Id; Lt A-LtB1 "
fortNE;17;15;6;2;fortNE_Vorg>EZ>PRIA>PRIA-I>PRIA-IB>juengerPRIA-Ib;PRIA-Ibjuenger;Jüngere PRIA_IB ;-350;-250;"Martens/Hingst; = Hingst Id; Lt B1-B2 "
fortNE;18;11;4;2;fortNE_Vorg>EZ>PRIA>PRIA-II;PRIA-II;PRIA_II;-250;0;"Hingst II; Nortmann Horizont 5"
fortNE;19;18;5;1;fortNE_Vorg>EZ>PRIA>PRIA-II>PRIA-IIA;PRIA-IIA;PRIA_IIA ;-250;-200;Hingst IIa, Hingst = Lt C1 
fortNE;20;18;5;2;fortNE_Vorg>EZ>PRIA>PRIA-II>PRIA-IIB;PRIA-IIB;PRIA_IIB ;-200;-80;Hingst IIb, Hingst = Lt C2- 200-80 
fortNE;21;18;5;3;fortNE_Vorg>EZ>PRIA>PRIA-II>PRIA-IIC;PRIA-IIC;PRIA_IIC ;-80;-50;Hingst IIc, 
fortNE;22;18;5;4;fortNE_Vorg>EZ>PRIA>PRIA-II>PRIA-IID;PRIA-IID;PRIA_IID ;-50;0;Hingst IId, 
fortNE;23;10;3;3;fortNE_Vorg>EZ>RKZ;RKZ;Römische Kaiserzeit;0;375;
landscWillroth1992;1;0;1;1;landscWR_Vorg;Vorg;Vorgeschichte;-2000;600;(Bearb. L. Hillmann 2022)
landscWillroth1992;2;1;2;1;landscWR_Vorg>BZ;BZ;Bronzezeit;-2000;-600;(Bearb. L. Hillmann 2022)
landscWillroth1992;3;2;3;1;landscWR_Vorg>BZ>aeltereBZ;aeltereBZ;aeltere Bronzezeit;-2000;-1200;(Bearb. L. Hillmann 2022)
landscWillroth1992;4;3;4;1;landscWR_Vorg>BZ>aeltereBZ>PerI;PerI;Periode I;-2000;-1500;(Bearb. L. Hillmann 2022)
landscWillroth1992;5;3;4;2;landscWR_Vorg>BZ>aeltereBZ>PerII;PerII;Periode II;-1500;-1300;(Bearb. L. Hillmann 2022)
landscWillroth1992;6;3;4;3;landscWR_Vorg>BZ>aeltereBZ>PerIII;PerIII;Periode III;-1300;-1100;(Bearb. L. Hillmann 2022)
landscWillroth1992;7;2;3;1;landscWR_Vorg>BZ>juengereBZ;juengereBZ;juengere Bronzezeit;-1100;-600;(Bearb. L. Hillmann 2022)
landscWillroth1992;8;3;4;1;landscWR_Vorg>BZ>juengereBZ>PerIV;PerIV;Periode IV;-1100;-950;(Bearb. L. Hillmann 2022)
landscWillroth1992;9;3;4;2;landscWR_Vorg>BZ>juengereBZ>PerV;PerV;Periode V;-950;-750;(Bearb. L. Hillmann 2022)
landscWillroth1992;10;3;4;3;landscWR_Vorg>BZ>juengereBZ>PerVI;PerVI;Periode VI;-750;-525;(Bearb. L. Hillmann 2022)
landscWillroth1992;11;1;2;2;landscWR_Vorg>EZ;EZ;Eisenzeit;-525;600;(Bearb. L. Hillmann 2022)
landscWillroth1992;12;11;3;1;landscWR_Vorg>EZ>PRIA;PRIA;Pre-Roman Iron Age;-525;0;(Bearb. L. Hillmann 2022)
landscWillroth1992;13;12;4;1;landscWR_Vorg>EZ>PRIA>PI;PI;Phase I;-525;-225;Willroth 1992, 209 (Bearb. L. Hillmann 2022)
landscWillroth1992;14;12;4;2;landscWR_Vorg>EZ>PRIA>PII;PII;Phase II;-225;0;(Bearb. L. Hillmann 2022)
landscWillroth1992;14;14;5;1;landscWR_Vorg>EZ>PRIA>PII>fruehPII;fruehPII;fruehe Phase II;-225;-100;Willroth 1992, 209 (Bearb. L. Hillmann 2022)
landscWillroth1992;15;14;5;2;landscWR_Vorg>EZ>PRIA>PII>spaetPII;spaetPII;spaete Phase II;-100;-30;Willroth 1992, 209 (Bearb. L. Hillmann 2022)
landscWillroth1992;16;11;3;2;landscWR_Vorg>EZ>RKZ;RKZ;Roemische Kaiserzeit;-30;375;Willroth 1992, 385 (Bearb. L. Hillmann 2022)
landscWillroth1992;17;16;4;1;landscWR_Vorg>EZ>RKZ>aeltereRKZ;aeltereRKZ;aeltere Roemische Kaiserzeit;-30;160;Willroth 1992, 385 (Bearb. L. Hillmann 2022)
landscWillroth1992;18;17;5;1;landscWR_Vorg>EZ>RKZ>aeltereRKZ>PerI;PerI;Periode I;-30;80;Willroth 1992, 385 (Bearb. L. Hillmann 2022)
landscWillroth1992;19;17;5;2;landscWR_Vorg>EZ>RKZ>aeltereRKZ>PerII;PerII;Periode II;80;160;Willroth 1992, 385 (Bearb. L. Hillmann 2022)
landscWillroth1992;20;16;4;2;landscWR_Vorg>EZ>RKZ>juengereRKZ;juengereRKZ;juengere Roemische Kaiserzeit;160;375;Willroth 1992, 385 (Bearb. L. Hillmann 2022)
landscWillroth1992;21;20;5;1;landscWR_Vorg>EZ>RKZ>juengereRKZ>PerI;PerI;Periode I;160;200;Willroth 1992, 385 (Bearb. L. Hillmann 2022)
landscWillroth1992;22;20;5;2;landscWR_Vorg>EZ>RKZ>juengereRKZ>PerII;PerII;Periode II;200;300;Willroth 1992, 385 (Bearb. L. Hillmann 2022)
landscWillroth1992;23;20;5;3;landscWR_Vorg>EZ>RKZ>juengereRKZ>PerIII;PerIII;Periode III;300;375;Willroth 1992, 385 (Bearb. L. Hillmann 2022)
